4 Assignment 3 | Portfolio Laurine Seelt
…
            Portfolio Laurine Seelt

4 Assignment 3

4.1 This was the third assignment for our portfolio.

dir_info(recurse = TRUE) %>%
  group_by(directory = path_dir(path)) %>%
  tally(wt = size, sort = TRUE)

## # A tibble: 25 x 2
##    directory                                          n
##    <chr>                                    <fs::bytes>
##  1 Daur2/Rmd                                       5.2M
##  2 Daur2/Data/Metagenomics                        4.12M
##  3 Data/Data_raw                                  2.49M
##  4 Rmd                                            1.34M
##  5 _book/libs/gitbook-2.6.7/js                  182.86K
##  6 _book/libs/gitbook-2.6.7/css/fontawesome     161.67K
##  7 _main_files/figure-html                      141.98K
##  8 _book/_main_files/figure-html                141.93K
##  9 _book                                        110.17K
## 10 001_opdracht1.1_files/figure-html            103.23K
## # ... with 15 more rows
