9 Working with DBeaver and SQL | Portfolio Laurine Seelt
…
Then I inspected the contents of the datasets in DBeaver and in R.

# Inspecting the flu_tidy dataset
flu_tidy %>% arrange(desc(flu_cases))

## # A tibble: 406 × 3
## # Groups:   country_f [29]
##    country_f     year_f flu_cases
##    <chr>         <chr>      <dbl>
##  1 South Africa  2014      155577
##  2 South Africa  2009      150344
##  3 Canada        2009      141118
##  4 South Africa  2013      140671
##  5 United States 2009      139394
##  6 South Africa  2012      136519
##  7 South Africa  2007      135522
##  8 South Africa  2008      135377
##  9 United States 2013      130196
## 10 South Africa  2010      129539
## # … with 396 more rows

flu_tidy$flu_cases %>% min(flu_tidy$flu_cases, na.rm = TRUE)

## [1] 106

flu_tidy$flu_cases %>% max(flu_tidy$flu_cases, na.rm = TRUE)

## [1] 155577

# Inspecting the dengue_tidy dataset
dengue_tidy %>% arrange(desc(dengue_cases))

## # A tibble: 140 × 3
## # Groups:   country_d [10]
##    country_d   year_d dengue_cases
##    <chr>       <chr>         <dbl>
##  1 Venezuela   2010           27.8
##  2 Venezuela   2014           22.8
##  3 Thailand    2013           17.3
##  4 Argentina   2009           16.7
##  5 Venezuela   2009           15.8
##  6 Venezuela   2013           15.7
##  7 Venezuela   2008           15.6
##  8 Venezuela   2007           15.3
##  9 Indonesia   2007           15.0
## 10 Philippines 2010           14.5
## # … with 130 more rows
…
